 Volume in drive C is OS
 Volume Serial Number is B811-4B08

 Directory of c:\Users\oak\git\research\computer-vision\ex2

05/21/2015  03:08    <DIR>          .
05/21/2015  03:08    <DIR>          ..
06/15/2013  15:56             6,371 adaboost.m
05/21/2015  02:16             2,409 AdaConvert.m
05/21/2015  03:05             2,073 AdaRunnerPart7.m
05/21/2015  02:30             2,071 adaRunnerPart8.m
05/21/2015  02:32             1,538 AdaTrainner.m
05/18/2015  18:22               171 calcImageDerivatives.m
05/20/2015  22:58               220 calcImageGradient.m
05/21/2015  00:46               476 Convert.m
05/21/2015  00:24               618 ConvertToHog.m
05/17/2015  16:34    <DIR>          dataset
05/20/2015  22:36             1,469 HOG.m
05/19/2015  11:10             2,134 HogRunner.m
05/19/2015  10:05             1,884 HogTrainner.m
05/19/2015  10:46               551 IntensityToHog.m
05/21/2015  03:08                 0 listoffile.txt
05/17/2015  16:58               862 loadImages.m
04/29/2015  09:22           132,717 matlab2-basic-object-recognition.pdf
05/21/2015  02:58    <DIR>          producation
04/23/2015  20:23               153 Reader.m
05/21/2015  02:54           200,486 report.docx
05/21/2015  03:04    <DIR>          results
05/20/2015  22:33             2,102 RidgeRunner.m
05/20/2015  23:07             2,094 RidgeRunnerPart6.m
05/20/2015  22:59               734 RidgeTrain.m
05/21/2015  00:56             2,391 RidgeTrainner.m
05/18/2015  16:10             2,070 Runner.m
05/18/2015  16:02               612 Trainer.m
05/19/2015  14:05               496 Validation.m
05/19/2015  14:06             2,432 ValidationTester.m
              26 File(s)        369,134 bytes
               5 Dir(s)  550,973,616,128 bytes free
